{
  "name": "kitchenware",
  "weight": 10,
  "items": [
    {
      "name": "Large IKEA bamboo cutting board",
      "description": "Really strudy and well treated heavy duty cutting board made out of bamboo",
      "price": 5,
      "images": ["images/kitchen.large_bamboo_cutting_board.jpg"],
      "metadata": {
        "link": "https://www.ikea.com/nl/nl/p/aptitlig-slagersblok-bamboe-00233429/",
        "condition": 0,
        "reserved": true
      },
      "dateAdded": "2019-09-29",
      "id": "kitchenware415744089"
    },
    {
      "name": "very Large dinner plates",
      "description": "larger than your average plate. set of 6 white, and one bonus black one. ",
      "price": 3,
      "images": ["images/kitchen.7plates.jpg"],
      "metadata": {"link": "", "condition": 0},
      "dateAdded": "2019-10-22",
      "id": "kitchenware1929202340"
    },
    {
      "name": "Churchill plates",
      "description": "Decorative plates, set of 4",
      "price": 3,
      "images": ["images/kitchen.churchill.jpg"],
      "metadata": {"link": "", "condition": 0},
      "dateAdded": "2019-10-22",
      "id": "kitchenware1705308539"
    },
    {
      "name": "decorative glass bowl",
      "description": "28cm wide.",
      "price": 2,
      "images": ["images/kitchen.fancy_bowl.jpg"],
      "metadata": {"link": "", "condition": 0},
      "dateAdded": "2019-09-29",
      "id": "kitchenware611721382"
    },
    {
      "name": "grater",
      "description": "stainless steel grater, works great!",
      "price": 1,
      "images": ["images/kitchen.grater.jpg"],
      "metadata": {"link": "", "condition": 0},
      "dateAdded": "2019-10-14",
      "id": "kitchenware1237878901"
    },
    {
      "name": "Kitchen stuff",
      "description": "cheese cutter, corkscrew, can opener, pizza cutter. 50cent each, let me know which ones you want.",
      "price": 2,
      "images": ["images/home.misc.jpg"],
      "metadata": {"link": "", "condition": 0},
      "dateAdded": "2019-10-11",
      "id": "kitchenware671014488"
    },
    {
      "name": "oven mitt",
      "description": "fun design",
      "price": 1,
      "images": ["images/kitchen.oven_mitt.jpg"],
      "metadata": {"link": "", "condition": 0},
      "dateAdded": "2019-10-14",
      "id": "kitchenware940090772"
    },
    {
      "name": "blue place mats",
      "description": "Set of 4. Made of plastic",
      "price": 0,
      "images": ["images/kitchen.place_mats.jpg"],
      "metadata": {"link": "", "condition": 0},
      "dateAdded": "2019-10-14",
      "id": "kitchenware1137243666"
    },
    {
      "name": "drain catcher",
      "description": "Prevents food etc from going into the drain. Brand new.",
      "price": 0,
      "images": ["images/kitchen.drain.jpg"],
      "metadata": {"link": "", "condition": 0},
      "dateAdded": "2019-10-15",
      "id": "kitchenware129947264"
    },
    {
      "name": "tray",
      "description": "Plastic tray from ikea (fork for scale).",
      "price": 1,
      "images": ["images/kitchen.tray.jpg"],
      "metadata": {"link": "", "condition": 0},
      "dateAdded": "2019-10-14",
      "id": "kitchenware3568438"
    },
    {
      "name": "Cooking Utensils (4 pieces)",
      "description": "Large stainless steel ikea GRUNKA utensils. Set of 4 (fork for scale). Original price 6 euros. In great condition (barely used).",
      "price": 2,
      "images": ["images/kitchen.utensil_set.jpg"],
      "metadata": {
        "link": "https://www.ikea.com/nl/nl/p/grunka-keukengerei-4-delig-roestvrij-staal-30083334/",
        "condition": 0
      },
      "dateAdded": "2019-10-14",
      "id": "kitchenware1520814651"
    },
    {
      "name": "table runner",
      "description": "77cm x 40cm.",
      "price": 0,
      "images": ["images/kitchen.table_runner.jpg"],
      "metadata": {"link": "", "condition": 0},
      "dateAdded": "2019-09-29",
      "id": "kitchenware1508755394"
    },
    {
      "name": "avocado tool",
      "description": "avocado spoon and slicer. never used.",
      "price": 0,
      "images": ["images/kitchen.avacado.jpg"],
      "metadata": {"link": "", "condition": 1},
      "dateAdded": "2019-09-29",
      "id": "kitchenware1817349035"
    },
    {
      "name": "large ceramic grill pan",
      "description": "A little dirty, but no major scratches in the coating.",
      "price": 1,
      "images": ["images/kitchen.grill_pan.jpg"],
      "metadata": {"link": "", "condition": 1},
      "dateAdded": "2019-09-29",
      "id": "kitchenware1055639124"
    },
    {
      "name": "teflon pan",
      "description": "Some minor scratches, otherwise okay.",
      "price": 2,
      "images": ["images/kitchen.teflon.jpg", "images/kitchen.teflon2.jpg"],
      "metadata": {"link": "", "condition": 1},
      "dateAdded": "2019-09-29",
      "id": "kitchenware1465372525"
    }
  ]
}
